{
    "traffic_all_site_line": {
        "service": "Workable\\SiteReport\\Services\\DataCoreChartService@getData",
        "query": {
            "table": "site_traffic_overview",
            "filter": [],
            "transform": "traffic_all_site_line"
        },
        "chartConfig": [
            {
                "type": "line",
                "name": "Traffic diễn biến tổng\n",
                "id": "",
                "col": "",
                "option": true,
                "url": ""
            }
        ]
    },
    "traffic_all_site_bar": {
        "service": "Workable\\SiteReport\\Services\\DataCoreChartService@getData",
        "query": {
            "table": "site_traffic_overview",
            "filter": [],
            "transform": "traffic_all_site_bar"
        },
        "chartConfig": [
            {
                "type": "bar",
                "name": "Traffic tổng các site",
                "id": "",
                "col": "col-md-8",
                "option": true,
                "url": "https://123work.net"
            }
        ]
    },
    "list": {
        "service": "Workable\\SiteReport\\Services\\DataCoreChartService@getData",
        "query": {
            "table": "site_traffic_overview",
            "filter": [],
            "transform": "list_traffic_home"
        },
        "chartConfig": [
            {
                "type": "line",
                "name": "123work US",
                "id": "1",
                "col": "col-md-4",
                "option": true,
                "url": "https://123work.net"
            },
            {
                "type": "line",
                "name": "123work UK",
                "id": "2",
                "col": "col-md-4",
                "option": true,
                "url": "https://uk.123work.net"
            },
            {
                "type": "line",
                "name": "123work AU",
                "id": "3",
                "col": "col-md-4",
                "option": true,
                "url": "https://au.123work.net"
            },
            {
                "type": "line",
                "name": "123work CA",
                "id": "4",
                "col": "col-md-4",
                "option": true,
                "url": "https://ca.123work.net"
            },
            {
                "type": "line",
                "name": "123work FR",
                "id": "5",
                "col": "col-md-4",
                "option": true,
                "url": "https://fr.123work.net"
            },
            {
                "type": "line",
                "name": "123work IT",
                "id": "6",
                "col": "col-md-4",
                "option": true,
                "url": "https://it.123work.net"
            },
            {
                "type": "line",
                "name": "123work DE",
                "id": "7",
                "col": "col-md-4",
                "option": true,
                "url": "https://de.123work.net"
            },
            {
                "type": "line",
                "name": "123work NL",
                "id": "8",
                "col": "col-md-4",
                "option": true,
                "url": "https://nl.123work.net"
            },
            {
                "type": "line",
                "name": "123work MX",
                "id": "9",
                "col": "col-md-4",
                "option": true,
                "url": "https://mx.123work.net"
            },
            {
                "type": "line",
                "name": "123work ID",
                "id": "10",
                "col": "col-md-4",
                "option": true,
                "url": "https://id.123work.net"
            },
            {
                "type": "line",
                "name": "123work BR",
                "id": "11",
                "col": "col-md-4",
                "option": true,
                "url": "https://br.123work.net"
            },
            {
                "type": "line",
                "name": "123work IN",
                "id": "12",
                "col": "col-md-4",
                "option": true,
                "url": "https://in.123work.net"
            },
            {
                "type": "line",
                "name": "123work ES",
                "id": "13",
                "col": "col-md-4",
                "option": true,
                "url": "https://es.123work.net"
            },
            {
                "type": "line",
                "name": "123work TR",
                "id": "14",
                "col": "col-md-4",
                "option": true,
                "url": "https://tr.123work.net"
            },
            {
                "type": "line",
                "name": "123work SE",
                "id": "15",
                "col": "col-md-4",
                "option": true,
                "url": "https://se.123work.net"
            },
            {
                "type": "line",
                "name": "123work FI",
                "id": "16",
                "col": "col-md-4",
                "option": true,
                "url": "https://fi.123work.net"
            },
            {
                "type": "line",
                "name": "123work AR",
                "id": "17",
                "col": "col-md-4",
                "option": true,
                "url": "https://ar.123work.net"
            },
            {
                "type": "line",
                "name": "123work JP",
                "id": "18",
                "col": "col-md-4",
                "option": true,
                "url": "https://jp.123work.net"
            }
        ]
    }
}
